<?xml version="1.0" encoding="iso-8859-1"?>
<!-- Generator: Adobe Illustrator 19.0.0, SVG Export Plug-In . SVG Version: 6.00 Build 0)  -->
<svg version="1.1" id="Layer_1" xmlns="http://www.w3.org/2000/svg" xmlns:xlink="http://www.w3.org/1999/xlink" x="0px" y="0px"
	 viewBox="0 0 496.564 496.564" style="enable-background:new 0 0 496.564 496.564;" xml:space="preserve">
<path style="fill:#48A1AF;" d="M248.285,0C111.273,0,0.203,111.06,0.203,248.082c0,137.001,111.07,248.07,248.082,248.07
	c137.006,0,248.076-111.069,248.076-248.07C496.361,111.059,385.291,0,248.285,0z"/>
<path style="fill:#6A8E32;" d="M244.502,282.925c-86.398,0-165.843,16.371-228.713,50.748
	c34.487,95.008,125.541,162.891,232.463,162.891c105.61,0,195.707-66.252,231.138-159.434
	C415.586,300.387,333.742,282.925,244.502,282.925z"/>
<polygon style="fill:#C19F5B;" points="251.836,67.46 240.76,64.383 237.677,380.779 261.267,380.779 261.267,66.013 "/>
<polygon style="fill:#A07F45;" points="239.548,64.383 236.035,380.779 262.908,380.779 262.908,66.013 "/>
<polygon style="fill:#BC995B;" points="262.908,66.013 252.166,67.46 239.548,64.383 239.179,97.62 241.785,108.692 
	238.931,119.771 237.256,270.747 241.99,276.698 236.818,310.137 236.035,408.383 262.908,408.383 262.908,227.261 260.248,224.799 
	262.908,212.902 "/>
<polygon style="fill:#C99D63;" points="242.687,65.148 239.179,97.62 241.785,108.692 238.931,119.771 237.719,408.383 
	241.546,408.383 244.972,65.705 "/>
<polygon style="fill:#A07F45;" points="232.349,130.847 141.062,131.462 139.045,156 250.282,152.506 359.841,156 361.52,140.078 
	361.52,131.462 "/>
<path style="fill:#FFFAFE;" d="M351.934,153.822H327.39c3.801,21.956,0.689,49.881,0.744,50.178
	c0.911,5.068,16.267,9.181,21.821,7.243C350.646,211.002,355.548,181.474,351.934,153.822z"/>
<path style="fill:#F2F2F2;" d="M338.603,153.822H327.39c3.801,21.956,0.689,49.881,0.744,50.178c0.509,2.829,5.516,5.36,10.81,6.707
	C343.133,211.775,338.603,153.822,338.603,153.822z"/>
<path style="fill:#FFFAFE;" d="M176.066,153.822h-24.641c-4.125,30.063,0.65,64.01,1.026,64.239
	c4.259,2.592,19.231-0.893,22.201-5.674C175.016,211.805,171.904,178.185,176.066,153.822z"/>
<path style="fill:#F2F2F2;" d="M176.066,153.822h-12.23c0,0-3.1,65.224,2.066,63.654c3.936-1.196,7.467-3.021,8.751-5.089
	C175.016,211.805,171.904,178.185,176.066,153.822z"/>
<path style="fill:#C9A25F;" d="M360.148,134.949l1.372-3.487l-13.465-0.215c-0.005-0.005-0.212,3.298-0.215,3.292l-15.527-3.542
	l-82.479-1.313l-21.385,0.35l-5.947,2.455l-6.347-2.253l-45.346,0.742l-16.497,0.237c-0.006,0.011-0.01,0.021-0.016,0.033
	l-13.234,0.216l2.462,9.231l-3.384,6.154l-1.096,9.152l18.828-0.301l22.373-0.264c0.004-0.031,0.006-0.063,0.012-0.094l70.024-1.12
	l71.904,1.168c0.005,0.035,0.007,0.072,0.013,0.108l26.637,0.325l11.005,0.178l-4.142-6.383l4.758-8.923L360.148,134.949z"/>
<path style="fill:#C49A5F;" d="M348.055,131.247c-0.005-0.005-0.212,3.298-0.215,3.292l-15.527-3.542l-82.479-1.313l-21.385,0.35
	l-5.947,2.455l-6.347-2.253l-45.346,0.742l-16.497,0.237c-0.006,0.011-0.01,0.021-0.016,0.033l-13.234,0.216l1.198,4.494
	l217.888-1.007l1.372-3.487L348.055,131.247z"/>
<path style="fill:#C69E63;" d="M355.699,149.617l-216.154,2.21l-0.5,4.173l18.828-0.301l22.373-0.264
	c0.004-0.031,0.006-0.063,0.012-0.094l70.024-1.12l71.904,1.168c0.005,0.035,0.007,0.072,0.013,0.108l26.637,0.325L359.841,156
	L355.699,149.617z"/>
<path style="fill:#FFFAFE;" d="M304.119,126.846c-15.688,4.665-25.004,35.13-52.488,35.13c-27.487,0-36.836-30.474-52.494-35.13
	c-17.492-5.202-41.194,0.895-42.831,4.367l20.53-0.589c3.826-0.596,7.739,0.271,10.578,0.889c0.277,0.061,0.569,0.115,0.824,0.191
	c8.592,2.555,13.336,54.12,63.393,54.12c50.056,0,54.797-51.565,63.387-54.12c0.21-0.063,0.451-0.104,0.678-0.157
	c2.907-0.67,6.993-1.524,10.96-0.887l20.307,0.571C345.325,127.752,321.614,121.644,304.119,126.846z"/>
<path style="fill:#F2F2F2;" d="M307.653,130.847c-16.744,4.665-28.538,43.9-56.022,43.9c-27.487,0-39.316-39.244-56.027-43.9
	c-18.672-5.202-37.661-3.105-39.298,0.367l20.53-0.589c3.826-0.596,7.739,0.271,10.578,0.889c0.277,0.061,0.569,0.115,0.824,0.191
	c8.592,2.555,13.336,58.222,63.393,58.222c50.056,0,54.797-55.667,63.387-58.222c0.21-0.063,0.451-0.104,0.678-0.157
	c2.907-0.67,6.993-1.524,10.96-0.887l20.307,0.571C345.325,127.752,326.325,125.644,307.653,130.847z"/>
<path style="fill:#617F2B;" d="M257.045,395.383c0,0-4.833-11.583-1.5-18.25c3.333-6.667-13.167,7.917-12,18.75c0,0-5-11.5-20.5-8.5
	c0,0,10.667,15.333,10.667,24.667l32.666,0.333c0,0,2.917-18,15.417-27.5C281.795,384.883,259.795,381.133,257.045,395.383z"/>
<polygon style="fill:#C19F5B;" points="399.056,200.196 393.115,201.846 388.056,201.07 388.056,369.904 400.711,369.904 "/>
<polygon style="fill:#91703C;" points="399.705,200.196 387.176,201.07 387.176,369.904 401.59,369.904 "/>
<polygon style="fill:#AA874F;" points="401.17,332.013 398.396,314.077 400.935,310.885 400.037,229.905 398.506,223.962 
	399.904,218.024 399.705,200.196 392.939,201.846 387.176,201.07 387.176,279.858 388.603,286.24 387.176,287.56 387.176,369.904 
	401.59,369.904 "/>
<polygon style="fill:#91703C;" points="452.531,235.131 403.566,235.845 334.283,236.175 334.283,240.797 335.183,249.337 
	393.949,247.463 453.615,248.293 "/>
<path style="fill:#AF8A4F;" d="M453.027,243.383l-1.816-3.301l1.32-4.952l-7.098-0.116c-0.002-0.006-0.006-0.011-0.008-0.017
	l-8.85-0.127l-19.198,1.802l-8.528-0.991l-3.189-0.272l-11.471-0.188l-44.24,0.705l-8.328,1.899
	c-0.002,0.003-0.113-1.768-0.115-1.765l-7.223,0.115l0.736,1.871l-0.166,3.081l2.553,4.786l-2.223,3.424l5.902-0.096l14.289-0.173
	c0.004-0.02,3.001-2.332,3.003-2.351l35.571,1.667l37.559-0.444c0.004,0.017,0.004,0.034,0.008,0.05l12,0.142l10.1,0.162
	L453.027,243.383z"/>
<polygon style="fill:#C19F5B;" points="107.722,200.196 101.783,201.846 96.722,201.07 96.722,369.904 109.377,369.904 "/>
<polygon style="fill:#91703C;" points="108.373,200.196 95.844,201.07 95.844,369.904 110.258,369.904 "/>
<polygon style="fill:#AA874F;" points="109.838,332.013 107.064,314.077 109.603,310.885 108.703,229.905 107.174,223.962 
	108.572,218.024 108.373,200.196 101.605,201.846 95.844,201.07 95.844,279.858 97.269,286.24 95.844,287.56 95.844,369.904 
	110.258,369.904 "/>
<polygon style="fill:#91703C;" points="161.199,236.175 112.234,235.845 42.949,236.175 42.949,240.797 43.851,249.337 
	102.615,247.463 162.281,249.337 "/>
<path style="fill:#AF8A4F;" d="M161.693,244.428l-1.814-3.301l1.32-4.952l-7.1-0.116c-0.002-0.006-0.004-0.011-0.008-0.017
	l-8.848-0.127l-24.322-0.397l-3.406,1.209l-3.189-1.316l-11.469-0.188l-44.24,0.705l-8.33,1.899c0,0.003-0.113-1.768-0.115-1.765
	l-7.223,0.115l0.736,1.871l-0.164,3.081l2.551,4.786l-2.221,3.424l5.902-0.096l12.624-2.524c0.004-0.02,1.667,2.312,1.669,2.292
	l38.568-0.626l37.561,0.601c0.004,0.017,0.004,0.034,0.006,0.05l12,0.142l10.1,0.162L161.693,244.428z"/>
<g>
	<path style="fill:#617F2B;" d="M105.958,366.583c0,0-2.749-6.589-0.854-10.381c1.896-3.792-7.489,4.503-6.825,10.666
		c0,0-2.844-6.542-11.661-4.835c0,0,6.067,8.722,6.067,14.031l18.581,0.189c0,0,1.66-10.239,8.77-15.643
		C120.036,360.611,107.522,358.478,105.958,366.583z"/>
	<path style="fill:#617F2B;" d="M400.375,365.202c0.664-6.163-8.722-14.458-6.825-10.666c1.896,3.792-0.854,10.381-0.854,10.381
		c-1.564-8.105-14.078-5.973-14.078-5.973c7.109,5.404,8.77,15.643,8.77,15.643l18.581-0.189c0-5.309,6.067-14.031,6.067-14.031
		C403.219,358.66,400.375,365.202,400.375,365.202z"/>
</g>
<g>
</g>
<g>
</g>
<g>
</g>
<g>
</g>
<g>
</g>
<g>
</g>
<g>
</g>
<g>
</g>
<g>
</g>
<g>
</g>
<g>
</g>
<g>
</g>
<g>
</g>
<g>
</g>
<g>
</g>
</svg>
